date,knockout,team,opponent,minute,stoppage,penalty
2019-06-07,0,France,South Korea,9,,0
2019-06-07,0,France,South Korea,35,,0
2019-06-07,0,France,South Korea,45,2,0
2019-06-07,0,France,South Korea,85,,0
2019-06-08,0,Norway,Nigeria,17,,0
2019-06-08,0,Norway,Nigeria,34,,0
2019-06-08,0,Norway,Nigeria,37,,0
2019-06-12,0,Nigeria,South Korea,29,,0
2019-06-12,0,Nigeria,South Korea,75,,0
2019-06-12,0,France,Norway,46,,0
2019-06-12,0,France,Norway,72,,1
2019-06-12,0,Norway,France,54,,0
2019-06-17,0,France,Nigeria,79,,1
2019-06-17,0,Norway,South Korea,4,,1
2019-06-17,0,Norway,South Korea,50,,1
2019-06-17,0,South Korea,Norway,78,,0
2019-06-08,0,Germany,China,66,,0
2019-06-08,0,South Africa,Spain,25,,0
2019-06-08,0,Spain,South Africa,69,,1
2019-06-08,0,Spain,South Africa,82,,1
2019-06-08,0,Spain,South Africa,89,,0
2019-06-12,0,Germany,Spain,42,,0
2019-06-13,0,China,South Africa,40,,0
2019-06-17,0,Germany,South Africa,14,,0
2019-06-17,0,Germany,South Africa,29,,0
2019-06-17,0,Germany,South Africa,40,,0
2019-06-17,0,Germany,South Africa,58,,0
2019-06-09,0,Australia,Italy,22,,0
2019-06-09,0,Italy,Australia,56,,0
2019-06-09,0,Italy,Australia,90,5,0
2019-06-09,0,Brazil,Jamaica,15,,0
2019-06-09,0,Brazil,Jamaica,50,,0
2019-06-09,0,Brazil,Jamaica,64,,0
2019-06-13,0,Australia,Brazil,45,1,0
2019-06-13,0,Australia,Brazil,58,,0
2019-06-13,0,Australia,Brazil,66,,0
2019-06-13,0,Brazil,Australia,27,,1
2019-06-13,0,Brazil,Australia,38,,0
2019-06-14,0,Italy,Jamaica,12,,1
2019-06-14,0,Italy,Jamaica,25,,0
2019-06-14,0,Italy,Jamaica,46,,0
2019-06-14,0,Italy,Jamaica,71,,0
2019-06-14,0,Italy,Jamaica,81,,0
2019-06-18,0,Australia,Jamaica,11,,0
2019-06-18,0,Australia,Jamaica,42,,0
2019-06-18,0,Australia,Jamaica,69,,0
2019-06-18,0,Australia,Jamaica,83,,0
2019-06-18,0,Jamaica,Australia,49,,0
2019-06-18,0,Brazil,Italy,74,,1
2019-06-09,0,England,Scotland,14,,1
2019-06-09,0,England,Scotland,40,,0
2019-06-09,0,Scotland,England,79,,0
2019-06-14,0,Japan,Scotland,23,,0
2019-06-14,0,Japan,Scotland,37,,1
2019-06-14,0,Scotland,Japan,88,,0
2019-06-14,0,England,Argentina,62,,0
2019-06-19,0,England,Japan,14,,0
2019-06-19,0,England,Japan,84,,0
2019-06-19,0,Scotland,Argentina,19,,0
2019-06-19,0,Scotland,Argentina,49,,0
2019-06-19,0,Scotland,Argentina,69,,0
2019-06-19,0,Argentina,Scotland,74,,0
2019-06-19,0,Argentina,Scotland,79,,0
2019-06-19,0,Argentina,Scotland,90,4,0
2019-06-10,0,Canada,Cameroon,45,,0
2019-06-11,0,Netherlands,New Zealand,90,2,0
2019-06-15,0,Netherlands,Cameroon,41,,0
2019-06-15,0,Netherlands,Cameroon,48,,0
2019-06-15,0,Netherlands,Cameroon,85,,0
2019-06-15,0,Cameroon,Netherlands,43,,0
2019-06-15,0,Canada,New Zealand,48,,0
2019-06-15,0,Canada,New Zealand,79,,0
2019-06-20,0,Netherlands,Canada,54,,0
2019-06-20,0,Netherlands,Canada,75,,0
2019-06-20,0,Canada,Netherlands,60,,0
2019-06-20,0,Cameroon,New Zealand,57,,0
2019-06-20,0,Cameroon,New Zealand,90,5,0
2019-06-20,0,New Zealand,Cameroon,80,,0
2019-06-11,0,Sweden,Chile,83,,0
2019-06-11,0,Sweden,Chile,90,4,0
2019-06-11,0,United States,Thailand,12,,0
2019-06-11,0,United States,Thailand,20,,0
2019-06-11,0,United States,Thailand,32,,0
2019-06-11,0,United States,Thailand,50,,0
2019-06-11,0,United States,Thailand,53,,0
2019-06-11,0,United States,Thailand,54,,0
2019-06-11,0,United States,Thailand,56,,0
2019-06-11,0,United States,Thailand,74,,0
2019-06-11,0,United States,Thailand,79,,0
2019-06-11,0,United States,Thailand,81,,0
2019-06-11,0,United States,Thailand,85,,0
2019-06-11,0,United States,Thailand,87,,0
2019-06-11,0,United States,Thailand,90,2,0
2019-06-16,0,Sweden,Thailand,6,,0
2019-06-16,0,Sweden,Thailand,19,,0
2019-06-16,0,Sweden,Thailand,42,,0
2019-06-16,0,Sweden,Thailand,81,,0
2019-06-16,0,Sweden,Thailand,90,6,1
2019-06-16,0,Thailand,Sweden,90,1,0
2019-06-16,0,United States,Chile,11,,0
2019-06-16,0,United States,Chile,26,,0
2019-06-16,0,United States,Chile,35,,0
2019-06-20,0,United States,Sweden,3,,0
2019-06-20,0,United States,Sweden,50,,0
2019-06-20,0,Chile,Thailand,48,,0
2019-06-20,0,Chile,Thailand,80,,0
2019-06-22,1,Germany,Nigeria,20,,0
2019-06-22,1,Germany,Nigeria,27,,1
2019-06-22,1,Germany,Nigeria,82,,0
2019-06-22,1,Norway,Australia,31,,0
2019-06-22,1,Australia,Norway,83,,0
2019-06-23,1,England,Cameroon,14,,0
2019-06-23,1,England,Cameroon,45,4,0
2019-06-23,1,England,Cameroon,58,,0
2019-06-23,1,France,Brazil,52,,0
2019-06-23,1,France,Brazil,107,,0
2019-06-23,1,Brazil,France,63,,0
2019-06-24,1,United States,Spain,7,,1
2019-06-24,1,United States,Spain,75,,1
2019-06-24,1,Spain,United States,9,,0
2019-06-24,1,Sweden,Canada,55,,0
2019-06-25,1,Italy,China,15,,0
2019-06-25,1,Italy,China,49,,0
2019-06-25,1,Netherlands,Japan,17,,0
2019-06-25,1,Netherlands,Japan,90,,1
2019-06-25,1,Japan,Netherlands,43,,0
2019-06-27,1,England,Norway,3,,0
2019-06-27,1,England,Norway,40,,0
2019-06-27,1,England,Norway,57,,0
2019-06-28,1,United States,France,5,,0
2019-06-28,1,United States,France,65,,0
2019-06-28,1,France,United States,81,,0
2019-06-29,1,Netherlands,Italy,70,,0
2019-06-29,1,Netherlands,Italy,80,,0
2019-06-29,1,Sweden,Germany,22,,0
2019-06-29,1,Sweden,Germany,48,,0
2019-06-29,1,Germany,Sweden,16,,0
2019-07-02,1,United States,England,10,,0
2019-07-02,1,United States,England,31,,0
2019-07-02,1,England,United States,19,,0
2019-07-03,1,Netherlands,Sweden,99,,0
2019-07-06,1,Sweden,England,11,,0
2019-07-06,1,Sweden,England,22,,0
2019-07-06,1,England,Sweden,31,,0
2019-07-07,1,United States,Netherlands,61,,1
2019-07-07,1,United States,Netherlands,69,,0
